{
    "work": {
        "title": "1.Сходить на работу(Необходимо Усталость < 10, Мана <50) \n\t○ - 5 Жизнерадостность \n\t○ - 30 Мана\n\t○ + $100\n\t○ + 70 Усталость",
        "main": {
            "text": "Необходимо Усталость < 10",
            "Cond": {
                "Mana": "<50",
                "Fatigue": "<10"
            },
            "Stats": {
                "Cheerfulness": -5,
                "Mana": -30,
                "Money": 100,
                "Fatigue": 70
            }
        }
    },
    "nature": {
        "title": "2.Созерцать природу\n\t○ +1 Жизнерадостность \n\t ○-10 Мана\n\t○ +10 Усталость",
        "main": {
            "Stats": {
                "Cheerfulness": 1,
                "Mana": -10,
                "Fatigue": 10
            }
        }
    },
    "soapWine": {
        "title": "3.Пить вино и смотреть сериал\n\t○ - 1 Жизнерадостность\n\t ○+ 30 Мана\n\t○ +10 Усталость\n\t○ - 5 Здоровью\n\t○ - $20",
        "main": {
            "Stats": {
                "Cheerfulness": -1,
                "Mana": 30,
                "Fatigue": 10,
                "Health": -5,
                "Money": -20
            }
        }
    },
    "bar": {
        "title": "4.Сходить в бар \n\t ○ +1 Жизнерадостность\n\t○ + 60 Мана\n\t○ + 40 Усталость\n\t○ - 10 Здоровье\n\t○ -100Р",
        "main": {
            "Stats": {
                "Cheerfulness": 1,
                "Mana": 60,
                "Fatigue": 40,
                "Health": -10,
                "Money": -100
            }
        }
    },
    "marginalDrink": {
        "title": "5.Выпить с маргинальными личностями\n\t○ + 5 Жизнерадостность \n\t ○ - 80 Здоровье \n\t ○ + 90 Мана \n\t ○ + 80 Усталость \n\t○ - 150 Р",
        "main": {
            "Stats": {
                "Cheerfulness": 5,
                "Mana": 90,
                "Fatigue": 80,
                "Health": -80,
                "Money": -150
            }
        }
    },
    "metro": {
        "title": "6.Петь в метро. \n\t +1 Жизнерадостность\n\t○ + 10 Мана\n\t○ + $10 (еще + $50 если изначально Мана > 40 & < 70)\n\t○ + 20 Усталость(+50 Р, если Мана > 40  и Мана < 70)",
        "main": {
            "Stats": {
                "Cheerfulness": 1,
                "Money": 10,
                "Fatigue": 20
            }
        },
        "Extra": [
            {
                "Cond": {
                    "ManaL": ">40",
                    "ManaH": "<70"
                },
                "Stats": {
                    "Money": 50,
                    "Mana": 10
                }
            },
            {
                "Cond": {
                    "Mana": "<40"
                },
                "Stats": {
                    "Mana": 10
                }
            },
            {
                "Cond": {
                    "Mana": ">90"
                },
                "Stats": {
                    "Mana": 10
                }
            }
        ]
    },
    "sleep": {
        "title": "7.Спать . \n\t +90 Здоровье, если Мана <30\n\t○ -3 Жизнерадостность\n\t○ -50 Мана \n\t○ - 70 Усталость",
        "main": {
            "Stats": {
                "Mana": -50,
                "Fatigue": -70
            }
        },
        "Extra": [
            {
                "Cond": {
                    "Mana": "<30"
                },
                "Stats": {
                    "Health": 90
                }
            },
            {
                "Cond": {
                    "Mana": ">70"
                },
                "Stats": {
                    "Cheerfulness": -3
                }
            }
        ]
    }
}